{
  "Analyzer": "CDeepDriving",
  "MainBuckets": [
    "Angle",
    "Fast",
    "IsInLane",
    "IsOnLane"
  ],
  "MaxPos": [
    7,
    4
  ],
  "Values": [
    {
      "Buckets": 60,
      "DoSubsample": false,
      "Max": 1.571,
      "Min": -1.571,
      "Name": "Angle",
      "Pos": [
        0,
        0
      ],
      "Results": {
        "Counts": [
          241,
          206,
          32,
          31,
          39,
          22,
          29,
          21,
          62,
          31,
          30,
          72,
          60,
          89,
          68,
          130,
          126,
          111,
          170,
          166,
          182,
          259,
          257,
          300,
          409,
          795,
          2207,
          7562,
          32186,
          293350,
          287607,
          33197,
          8448,
          2518,
          849,
          436,
          365,
          296,
          212,
          195,
          175,
          155,
          111,
          97,
          90,
          72,
          50,
          45,
          38,
          34,
          20,
          14,
          15,
          19,
          23,
          24,
          15,
          23,
          19,
          390
        ]
      }
    },
    {
      "BucketNames": [
        "F",
        "T"
      ],
      "Buckets": 2,
      "Max": 1,
      "Min": 0,
      "Name": "Fast",
      "Pos": [
        1,
        0
      ],
      "Results": {
        "Counts": [
          287857,
          386938
        ]
      }
    },
    {
      "BucketNames": [
        "F",
        "T"
      ],
      "Buckets": 2,
      "Max": 1,
      "Min": 0,
      "Name": "IsInLane",
      "Pos": [
        2,
        0
      ],
      "Results": {
        "Counts": [
          73958,
          600837
        ]
      },
      "SubBuckets": [
        "IsTraffic (in)",
        "Lanes (in)"
      ]
    },
    {
      "BucketNames": [
        "F",
        "T"
      ],
      "Buckets": 2,
      "Max": 1,
      "Min": 0,
      "Name": "IsOnLane",
      "Pos": [
        5,
        0
      ],
      "Results": {
        "Counts": [
          500125,
          174670
        ]
      },
      "SubBuckets": [
        "IsTraffic (out)",
        "Lanes (out)"
      ]
    },
    {
      "BucketNames": [
        "F",
        "T"
      ],
      "Buckets": 2,
      "Max": 1,
      "Min": 0,
      "Name": "IsTraffic (in)",
      "Pos": [
        0,
        1
      ],
      "Results": {
        "Counts": [
          367657,
          233180
        ]
      },
      "SubBuckets": [
        "TrafficType (in)"
      ]
    },
    {
      "BucketNames": [
        "LMR",
        "LM",
        "MR",
        "LR",
        "L",
        "M",
        "R"
      ],
      "Buckets": 7,
      "Max": 6,
      "Min": 0,
      "Name": "TrafficType (in)",
      "Pos": [
        0,
        3
      ],
      "Results": {
        "Counts": [
          776,
          17608,
          14725,
          4835,
          14929,
          166580,
          13727
        ]
      },
      "SubBuckets": [
        "DistLL",
        "DistMM",
        "DistRR"
      ]
    },
    {
      "Buckets": 120,
      "DoSubsample": false,
      "Max": 70.0,
      "Min": 0.0,
      "Name": "DistLL",
      "Pos": [
        1,
        3
      ],
      "Results": {
        "Counts": [
          193,
          211,
          239,
          362,
          550,
          1025,
          1507,
          1820,
          1988,
          2039,
          1992,
          1658,
          1605,
          1274,
          1153,
          800,
          716,
          701,
          593,
          487,
          471,
          464,
          425,
          313,
          234,
          238,
          260,
          315,
          309,
          322,
          249,
          239,
          294,
          190,
          172,
          185,
          179,
          175,
          199,
          208,
          210,
          240,
          305,
          186,
          217,
          151,
          178,
          189,
          245,
          244,
          210,
          177,
          233,
          203,
          175,
          227,
          232,
          186,
          158,
          136,
          162,
          201,
          241,
          271,
          209,
          150,
          195,
          192,
          205,
          186,
          171,
          147,
          159,
          179,
          263,
          167,
          138,
          144,
          139,
          149,
          195,
          130,
          150,
          130,
          179,
          173,
          152,
          147,
          150,
          180,
          188,
          152,
          149,
          211,
          184,
          173,
          230,
          276,
          168,
          279,
          209,
          219,
          0,
          0,
          0,
          0,
          0,
          0,
          0,
          0,
          0,
          0,
          0,
          0,
          0,
          0,
          0,
          0,
          0,
          0
        ]
      }
    },
    {
      "Buckets": 120,
      "DoSubsample": false,
      "Max": 70.0,
      "Min": 0.0,
      "Name": "DistMM",
      "Pos": [
        2,
        3
      ],
      "Results": {
        "Counts": [
          5,
          4,
          11,
          9,
          4,
          5,
          32,
          1356,
          5311,
          6880,
          6560,
          5869,
          5041,
          4212,
          4017,
          3271,
          3392,
          3379,
          3576,
          3862,
          5221,
          6036,
          6269,
          6539,
          6674,
          6943,
          7114,
          7051,
          6596,
          5800,
          5700,
          5467,
          4982,
          4497,
          3918,
          3597,
          3140,
          2908,
          2552,
          2181,
          2151,
          1935,
          1661,
          1416,
          1390,
          1371,
          1125,
          1027,
          862,
          988,
          950,
          1006,
          1101,
          994,
          970,
          912,
          828,
          750,
          832,
          1059,
          835,
          713,
          648,
          615,
          519,
          448,
          461,
          398,
          508,
          471,
          478,
          356,
          372,
          474,
          395,
          378,
          427,
          343,
          339,
          389,
          369,
          359,
          340,
          334,
          282,
          310,
          332,
          343,
          331,
          324,
          289,
          308,
          356,
          321,
          281,
          342,
          316,
          257,
          278,
          270,
          251,
          220,
          0,
          0,
          0,
          0,
          0,
          0,
          0,
          0,
          0,
          0,
          0,
          0,
          0,
          0,
          0,
          0,
          0,
          0
        ]
      }
    },
    {
      "Buckets": 120,
      "DoSubsample": false,
      "Max": 70.0,
      "Min": 0.0,
      "Name": "DistRR",
      "Pos": [
        3,
        3
      ],
      "Results": {
        "Counts": [
          201,
          203,
          251,
          320,
          409,
          798,
          1239,
          1327,
          1697,
          2267,
          1849,
          2095,
          1813,
          1451,
          1068,
          771,
          623,
          531,
          444,
          318,
          276,
          227,
          291,
          331,
          321,
          249,
          251,
          184,
          205,
          187,
          149,
          214,
          209,
          178,
          141,
          128,
          130,
          165,
          151,
          214,
          199,
          245,
          196,
          206,
          207,
          213,
          149,
          170,
          176,
          158,
          162,
          175,
          206,
          193,
          223,
          230,
          215,
          205,
          285,
          227,
          176,
          193,
          219,
          199,
          125,
          98,
          111,
          127,
          137,
          189,
          161,
          138,
          145,
          125,
          161,
          124,
          136,
          144,
          175,
          226,
          210,
          219,
          219,
          144,
          193,
          147,
          165,
          187,
          199,
          179,
          143,
          152,
          110,
          78,
          94,
          98,
          128,
          82,
          72,
          72,
          77,
          70,
          0,
          0,
          0,
          0,
          0,
          0,
          0,
          0,
          0,
          0,
          0,
          0,
          0,
          0,
          0,
          0,
          0,
          0
        ]
      }
    },
    {
      "BucketNames": [
        "3",
        "2L",
        "2R",
        "1"
      ],
      "Buckets": 4,
      "Max": 3,
      "Min": 0,
      "Name": "Lanes (in)",
      "Pos": [
        1,
        1
      ],
      "Results": {
        "Counts": [
          151569,
          168971,
          37971,
          242326
        ]
      },
      "SubBuckets": [
        "LL",
        "ML",
        "MR",
        "RR"
      ]
    },
    {
      "Buckets": 60,
      "DoSubsample": false,
      "Max": 0,
      "Min": -9,
      "Name": "LL",
      "Pos": [
        0,
        2
      ],
      "Results": {
        "Counts": [
          0,
          0,
          0,
          0,
          0,
          0,
          0,
          0,
          0,
          0,
          4069,
          5132,
          7275,
          9837,
          13746,
          19018,
          25256,
          30427,
          34767,
          36681,
          33431,
          27267,
          20416,
          14825,
          10867,
          7834,
          6218,
          5035,
          4361,
          4077,
          1,
          0,
          0,
          0,
          0,
          0,
          0,
          0,
          0,
          0,
          0,
          0,
          0,
          0,
          0,
          0,
          0,
          0,
          0,
          0,
          0,
          0,
          0,
          0,
          0,
          0,
          0,
          0,
          0,
          0
        ]
      }
    },
    {
      "Buckets": 60,
      "DoSubsample": false,
      "Max": 0,
      "Min": -5,
      "Name": "ML",
      "Pos": [
        1,
        2
      ],
      "Results": {
        "Counts": [
          0,
          0,
          0,
          0,
          0,
          0,
          0,
          0,
          0,
          0,
          0,
          0,
          0,
          0,
          0,
          0,
          0,
          0,
          5123,
          5359,
          5740,
          6547,
          7588,
          8539,
          9960,
          11554,
          13733,
          16235,
          20024,
          23850,
          27238,
          32045,
          37085,
          39751,
          42113,
          41622,
          39432,
          34689,
          30104,
          25184,
          20369,
          16578,
          13779,
          11608,
          9550,
          7824,
          6649,
          5829,
          5060,
          4564,
          4222,
          3935,
          3628,
          3726,
          1,
          0,
          0,
          0,
          0,
          0
        ]
      }
    },
    {
      "Buckets": 60,
      "DoSubsample": false,
      "Max": 5,
      "Min": 0,
      "Name": "MR",
      "Pos": [
        2,
        2
      ],
      "Results": {
        "Counts": [
          0,
          0,
          0,
          0,
          0,
          0,
          5123,
          5359,
          5740,
          6547,
          7588,
          8539,
          9960,
          11554,
          13733,
          16235,
          20024,
          23850,
          27238,
          32045,
          37085,
          39751,
          42113,
          41622,
          39432,
          34689,
          30104,
          25184,
          20369,
          16578,
          13779,
          11608,
          9550,
          7824,
          6649,
          5829,
          5060,
          4564,
          4222,
          3935,
          3628,
          3726,
          1,
          0,
          0,
          0,
          0,
          0,
          0,
          0,
          0,
          0,
          0,
          0,
          0,
          0,
          0,
          0,
          0,
          0
        ]
      }
    },
    {
      "Buckets": 60,
      "DoSubsample": false,
      "Max": 9,
      "Min": 0,
      "Name": "RR",
      "Pos": [
        3,
        2
      ],
      "Results": {
        "Counts": [
          0,
          0,
          0,
          0,
          0,
          0,
          0,
          0,
          0,
          0,
          0,
          0,
          0,
          0,
          0,
          0,
          0,
          0,
          0,
          0,
          0,
          0,
          0,
          0,
          0,
          0,
          0,
          0,
          0,
          0,
          4444,
          4786,
          6056,
          7197,
          9495,
          12442,
          15825,
          18772,
          20127,
          20429,
          18455,
          14517,
          10408,
          7882,
          5867,
          4170,
          2855,
          2259,
          1912,
          1642,
          0,
          0,
          0,
          0,
          0,
          0,
          0,
          0,
          0,
          0
        ]
      }
    },
    {
      "BucketNames": [
        "F",
        "T"
      ],
      "Buckets": 2,
      "Max": 1,
      "Min": 0,
      "Name": "IsTraffic (out)",
      "Pos": [
        4,
        1
      ],
      "Results": {
        "Counts": [
          105416,
          69254
        ]
      },
      "SubBuckets": [
        "TrafficType (out)"
      ]
    },
    {
      "BucketNames": [
        "LR",
        "L",
        "R"
      ],
      "Buckets": 3,
      "Max": 2,
      "Min": 0,
      "Name": "TrafficType (out)",
      "Pos": [
        4,
        3
      ],
      "Results": {
        "Counts": [
          16901,
          26771,
          25535
        ]
      },
      "SubBuckets": [
        "DistL",
        "DistR"
      ]
    },
    {
      "Buckets": 120,
      "DoSubsample": false,
      "Max": 70.0,
      "Min": 0.0,
      "Name": "DistL",
      "Pos": [
        5,
        3
      ],
      "Results": {
        "Counts": [
          12,
          23,
          46,
          101,
          143,
          215,
          373,
          947,
          2148,
          3861,
          4140,
          3256,
          2293,
          1890,
          1581,
          1450,
          1280,
          1019,
          895,
          717,
          754,
          757,
          632,
          599,
          438,
          421,
          409,
          369,
          427,
          455,
          496,
          379,
          453,
          321,
          274,
          262,
          312,
          252,
          279,
          303,
          304,
          233,
          292,
          199,
          167,
          156,
          138,
          121,
          135,
          160,
          138,
          141,
          192,
          170,
          181,
          211,
          184,
          180,
          194,
          276,
          223,
          231,
          218,
          186,
          121,
          105,
          149,
          102,
          111,
          106,
          114,
          131,
          90,
          79,
          139,
          161,
          110,
          98,
          107,
          77,
          95,
          90,
          117,
          114,
          72,
          80,
          78,
          85,
          104,
          86,
          59,
          73,
          140,
          176,
          106,
          140,
          172,
          120,
          87,
          133,
          72,
          61,
          0,
          0,
          0,
          0,
          0,
          0,
          0,
          0,
          0,
          0,
          0,
          0,
          0,
          0,
          0,
          0,
          0,
          0
        ]
      }
    },
    {
      "Buckets": 120,
      "DoSubsample": false,
      "Max": 70.0,
      "Min": 0.0,
      "Name": "DistR",
      "Pos": [
        6,
        3
      ],
      "Results": {
        "Counts": [
          20,
          18,
          54,
          43,
          73,
          194,
          314,
          857,
          2154,
          3055,
          3019,
          3026,
          2753,
          2483,
          1754,
          1459,
          1403,
          1130,
          844,
          753,
          648,
          535,
          671,
          513,
          457,
          496,
          425,
          356,
          330,
          286,
          384,
          316,
          295,
          289,
          251,
          254,
          213,
          233,
          317,
          374,
          341,
          311,
          328,
          265,
          232,
          231,
          175,
          142,
          114,
          130,
          120,
          209,
          289,
          217,
          209,
          245,
          266,
          219,
          311,
          303,
          171,
          145,
          210,
          201,
          150,
          175,
          127,
          107,
          157,
          144,
          137,
          97,
          130,
          122,
          125,
          111,
          106,
          134,
          80,
          121,
          134,
          182,
          151,
          98,
          88,
          91,
          125,
          118,
          69,
          102,
          96,
          126,
          104,
          59,
          60,
          66,
          78,
          60,
          50,
          35,
          47,
          41,
          0,
          0,
          0,
          0,
          0,
          0,
          0,
          0,
          0,
          0,
          0,
          0,
          0,
          0,
          0,
          0,
          0,
          0
        ]
      }
    },
    {
      "BucketNames": [
        "2",
        "1L",
        "1R"
      ],
      "Buckets": 3,
      "Max": 2,
      "Min": 0,
      "Name": "Lanes (out)",
      "Pos": [
        5,
        1
      ],
      "Results": {
        "Counts": [
          28784,
          84698,
          61188
        ]
      },
      "SubBuckets": [
        "L",
        "M",
        "R"
      ]
    },
    {
      "Buckets": 60,
      "DoSubsample": false,
      "Max": 0,
      "Min": -7,
      "Name": "L",
      "Pos": [
        4,
        2
      ],
      "Results": {
        "Counts": [
          0,
          0,
          0,
          0,
          0,
          0,
          0,
          0,
          0,
          0,
          0,
          0,
          0,
          0,
          0,
          3578,
          5689,
          4878,
          4329,
          4078,
          4018,
          4250,
          4273,
          4596,
          5012,
          6775,
          5654,
          6155,
          6489,
          6472,
          7184,
          7834,
          9117,
          11233,
          13488,
          16780,
          0,
          0,
          0,
          0,
          0,
          0,
          0,
          0,
          0,
          0,
          0,
          0,
          0,
          0,
          0,
          0,
          0,
          0,
          0,
          0,
          0,
          0,
          0,
          0
        ]
      }
    },
    {
      "Buckets": 60,
      "DoSubsample": false,
      "Max": 5,
      "Min": -5,
      "Name": "M",
      "Pos": [
        5,
        2
      ],
      "Results": {
        "Counts": [
          0,
          0,
          0,
          0,
          0,
          0,
          0,
          0,
          0,
          0,
          0,
          0,
          0,
          0,
          0,
          0,
          0,
          0,
          0,
          0,
          0,
          0,
          3101,
          13066,
          10371,
          9111,
          8669,
          9030,
          9779,
          11100,
          10895,
          10400,
          10682,
          11380,
          13023,
          16742,
          22016,
          5305,
          0,
          0,
          0,
          0,
          0,
          0,
          0,
          0,
          0,
          0,
          0,
          0,
          0,
          0,
          0,
          0,
          0,
          0,
          0,
          0,
          0,
          0
        ]
      }
    },
    {
      "Buckets": 60,
      "DoSubsample": false,
      "Max": 7,
      "Min": 0,
      "Name": "R",
      "Pos": [
        6,
        2
      ],
      "Results": {
        "Counts": [
          0,
          0,
          0,
          0,
          0,
          0,
          0,
          0,
          0,
          0,
          0,
          0,
          0,
          0,
          0,
          0,
          0,
          0,
          0,
          0,
          0,
          0,
          0,
          0,
          9646,
          7892,
          6711,
          5843,
          5318,
          5200,
          5178,
          5191,
          5439,
          5395,
          6134,
          4766,
          4257,
          4160,
          4120,
          4038,
          4230,
          4946,
          5523,
          6420,
          4352,
          0,
          0,
          0,
          0,
          0,
          0,
          0,
          0,
          0,
          0,
          0,
          0,
          0,
          0,
          0
        ]
      }
    },
    {
      "BucketNames": [
        "F",
        "T"
      ],
      "Buckets": 2,
      "DoSubsample": false,
      "Max": 1,
      "Min": 0,
      "Name": "IsTraffic",
      "Pos": [
        3.5,
        0
      ],
      "Results": {
        "Counts": [
          409304,
          265491
        ]
      }
    }
  ]
}
